
{
    "page": 1,
    "total_results": 415510,
    "total_pages": 20776,
    "results": [
      {
        "vote_count": 4845,
        "id": 299534,
        "video": false,
        "vote_average": 8.6,
        "title": "Avengers: Endgame",
        "popularity": 303.658,
        "poster_path": "/or06FN3Dka5tukK1e9sl16pB3iy.jpg",
        "original_language": "en",
        "original_title": "Avengers: Endgame",
        "genre_ids": [
          12,
          878,
          28
        ],
        "backdrop_path": "/7RyHsO4yDXtBv1zUU3mTpHeQ0d5.jpg",
        "adult": false,
        "overview": "After the devastating events of Avengers: Infinity War, the universe is in ruins due to the efforts of the Mad Titan, Thanos. With the help of remaining allies, the Avengers must assemble once more in order to undo Thanos' actions and restore order to the universe once and for all, no matter what consequences may be in store.",
        "release_date": "2019-04-24"
      },
      {
        "vote_count": 14,
        "id": 543103,
        "video": false,
        "vote_average": 5.1,
        "title": "Kamen Rider Heisei Generations FOREVER",
        "popularity": 244.196,
        "poster_path": "/6sOFQDlkY6El1B2P5gklzJfVdsT.jpg",
        "original_language": "ja",
        "original_title": "仮面ライダー平成ジェネレーションズFOREVER",
        "genre_ids": [
          28,
          12,
          878
        ],
        "backdrop_path": "/uufTqD2CSn1NqL3cXEl4Vp3bCav.jpg",
        "adult": false,
        "overview": "In the world of Sougo Tokiwa and Sento Kiryu, their \"companions\" are losing their memories one after the other as they're replaced by other people. The Super Time Jacker, Tid , appears before them. He orders his powerful underlings, Another Double and Another Den-O, to pursue a young boy called Shingo. While fighting to protect Shingo, Sougo meets Ataru, a young man who loves Riders, but Ataru says that Kamen Riders aren't real. What is the meaning of those words? While the mystery deepens, the true enemy that Sougo and Sento must defeat appears in the Kuriogatake mountain...",
        "release_date": "2018-12-22"
      },
      {
        "vote_count": 4736,
        "id": 299537,
        "video": false,
        "vote_average": 7.1,
        "title": "Captain Marvel",
        "popularity": 212.607,
        "poster_path": "/AtsgWhDnHTq68L0lLsUrCnM7TjG.jpg",
        "original_language": "en",
        "original_title": "Captain Marvel",
        "genre_ids": [
          28,
          12,
          878
        ],
        "backdrop_path": "/w2PMyoyLU22YvrGK3smVM9fW1jj.jpg",
        "adult": false,
        "overview": "The story follows Carol Danvers as she becomes one of the universe’s most powerful heroes when Earth is caught in the middle of a galactic war between two alien races. Set in the 1990s, Captain Marvel is an all-new adventure from a previously unseen period in the history of the Marvel Cinematic Universe.",
        "release_date": "2019-03-06"
      },
      {
        "vote_count": 333,
        "id": 456740,
        "video": false,
        "vote_average": 5.1,
        "title": "Hellboy",
        "popularity": 184.343,
        "poster_path": "/bk8LyaMqUtaQ9hUShuvFznQYQKR.jpg",
        "original_language": "en",
        "original_title": "Hellboy",
        "genre_ids": [
          28,
          12,
          14
        ],
        "backdrop_path": "/5BkSkNtfrnTuKOtTaZhl8avn4wU.jpg",
        "adult": false,
        "overview": "Hellboy comes to England, where he must defeat Nimue, Merlin's consort and the Blood Queen. But their battle will bring about the end of the world, a fate he desperately tries to turn away.",
        "release_date": "2019-04-10"
      },
      {
        "vote_count": 836,
        "id": 537915,
        "video": false,
        "vote_average": 6.1,
        "title": "After",
        "popularity": 175.134,
        "poster_path": "/u3B2YKUjWABcxXZ6Nm9h10hLUbh.jpg",
        "original_language": "en",
        "original_title": "After",
        "genre_ids": [
          18,
          10749
        ],
        "backdrop_path": "/997ToEZvF2Obp9zNZbY5ELVnmrW.jpg",
        "adult": false,
        "overview": "A young woman falls for a guy with a dark secret and the two embark on a rocky relationship.",
        "release_date": "2019-04-11"
      },
      {
        "vote_count": 141,
        "id": 447404,
        "video": false,
        "vote_average": 7.2,
        "title": "Pokémon Detective Pikachu",
        "popularity": 171.805,
        "poster_path": "/wgQ7APnFpf1TuviKHXeEe3KnsTV.jpg",
        "original_language": "en",
        "original_title": "Pokémon Detective Pikachu",
        "genre_ids": [
          9648,
          10751,
          80,
          14,
          35,
          878
        ],
        "backdrop_path": "/nDP33LmQwNsnPv29GQazz59HjJI.jpg",
        "adult": false,
        "overview": "In a world where people collect pocket-size monsters (Pokémon) to do battle, a boy comes across an intelligent monster who seeks to be a detective.",
        "release_date": "2019-05-03"
      },
      {
        "vote_count": 1446,
        "id": 287947,
        "video": false,
        "vote_average": 7.2,
        "title": "Shazam!",
        "popularity": 161.594,
        "poster_path": "/xnopI5Xtky18MPhK40cZAGAOVeV.jpg",
        "original_language": "en",
        "original_title": "Shazam!",
        "genre_ids": [
          35,
          12,
          14
        ],
        "backdrop_path": "/qwgGtdlLMKYvT2tV8hLY22syRHN.jpg",
        "adult": false,
        "overview": "A boy is given the ability to become an adult superhero in times of need with a single magic word.",
        "release_date": "2019-03-23"
      },
      {
        "vote_count": 16,
        "id": 495925,
        "video": false,
        "vote_average": 5.3,
        "title": "Doraemon the Movie: Nobita's Treasure Island",
        "popularity": 159.938,
        "poster_path": "/cmJ71gdZxCqkMUvGwWgSg3MK7pC.jpg",
        "original_language": "ja",
        "original_title": "映画ドラえもん のび太の宝島",
        "genre_ids": [
          16
        ],
        "backdrop_path": "/8OamoIWfC9zmhwhh1PPaBcDoQaH.jpg",
        "adult": false,
        "overview": "The story is based on Robert Louis Stevenson's Treasure Island novel.",
        "release_date": "2018-03-03"
      },
      {
        "vote_count": 13402,
        "id": 299536,
        "video": false,
        "vote_average": 8.3,
        "title": "Avengers: Infinity War",
        "popularity": 156.387,
        "poster_path": "/7WsyChQLEftFiDOVTGkv3hFpyyt.jpg",
        "original_language": "en",
        "original_title": "Avengers: Infinity War",
        "genre_ids": [
          12,
          28,
          14
        ],
        "backdrop_path": "/bOGkgRGdhrBYJSLpXaxhXVstddV.jpg",
        "adult": false,
        "overview": "As the Avengers and their allies have continued to protect the world from threats too large for any one hero to handle, a new danger has emerged from the cosmic shadows: Thanos. A despot of intergalactic infamy, his goal is to collect all six Infinity Stones, artifacts of unimaginable power, and use them to inflict his twisted will on all of reality. Everything the Avengers have fought for has led up to this moment - the fate of Earth and existence itself has never been more uncertain.",
        "release_date": "2018-04-25"
      },
      {
        "vote_count": 448,
        "id": 438650,
        "video": false,
        "vote_average": 5.2,
        "title": "Cold Pursuit",
        "popularity": 132.199,
        "poster_path": "/otK0H9H1w3JVGJjad5Kzx3Z9kt2.jpg",
        "original_language": "en",
        "original_title": "Cold Pursuit",
        "genre_ids": [
          28,
          18,
          53,
          80,
          35
        ],
        "backdrop_path": "/aiM3XxYE2JvW1vJ4AC6cI1RjAoT.jpg",
        "adult": false,
        "overview": "Nels Coxman, a snowplow driver recently awarded as the citizen of the year, triggers a series of violence and misunderstandings between two rival gangs after he starts avenging his son's death.",
        "release_date": "2019-02-07"
      },
      {
        "vote_count": 2708,
        "id": 450465,
        "video": false,
        "vote_average": 6.5,
        "title": "Glass",
        "popularity": 115.715,
        "poster_path": "/svIDTNUoajS8dLEo7EosxvyAsgJ.jpg",
        "original_language": "en",
        "original_title": "Glass",
        "genre_ids": [
          53,
          9648,
          18,
          14,
          878
        ],
        "backdrop_path": "/lvjscO8wmpEbIfOEZi92Je8Ktlg.jpg",
        "adult": false,
        "overview": "In a series of escalating encounters, security guard David Dunn uses his supernatural abilities to track Kevin Wendell Crumb, a disturbed man who has twenty-four personalities. Meanwhile, the shadowy presence of Elijah Price emerges as an orchestrator who holds secrets critical to both men.",
        "release_date": "2019-01-16"
      },
      {
        "vote_count": 1732,
        "id": 166428,
        "video": false,
        "vote_average": 7.6,
        "title": "How to Train Your Dragon: The Hidden World",
        "popularity": 100.387,
        "poster_path": "/xvx4Yhf0DVH8G4LzNISpMfFBDy2.jpg",
        "original_language": "en",
        "original_title": "How to Train Your Dragon: The Hidden World",
        "genre_ids": [
          16,
          10751,
          12
        ],
        "backdrop_path": "/lFwykSz3Ykj1Q3JXJURnGUTNf1o.jpg",
        "adult": false,
        "overview": "As Hiccup fulfills his dream of creating a peaceful dragon utopia, Toothless’ discovery of an untamed, elusive mate draws the Night Fury away. When danger mounts at home and Hiccup’s reign as village chief is tested, both dragon and rider must make impossible decisions to save their kind.",
        "release_date": "2019-01-03"
      },
      {
        "vote_count": 19285,
        "id": 24428,
        "video": false,
        "vote_average": 7.6,
        "title": "The Avengers",
        "popularity": 98.765,
        "poster_path": "/cezWGskPY5x7GaglTTRN4Fugfb8.jpg",
        "original_language": "en",
        "original_title": "The Avengers",
        "genre_ids": [
          878,
          28,
          12
        ],
        "backdrop_path": "/hbn46fQaRmlpBuUrEiFqv0GDL6Y.jpg",
        "adult": false,
        "overview": "When an unexpected enemy emerges and threatens global safety and security, Nick Fury, director of the international peacekeeping agency known as S.H.I.E.L.D., finds himself in need of a team to pull the world back from the brink of disaster. Spanning the globe, a daring recruitment effort begins!",
        "release_date": "2012-04-25"
      },
      {
        "vote_count": 226,
        "id": 487297,
        "video": false,
        "vote_average": 5.8,
        "title": "What Men Want",
        "popularity": 98.41,
        "poster_path": "/30IiwvIRqPGjUV0bxJkZfnSiCL.jpg",
        "original_language": "en",
        "original_title": "What Men Want",
        "genre_ids": [
          35,
          14,
          10749
        ],
        "backdrop_path": "/wbAQKi2E5cO0Utk5KDk9yX3kuOu.jpg",
        "adult": false,
        "overview": "Magically able to hear what men are thinking, a sports agent uses her newfound ability to turn the tables on her overbearing male colleagues.",
        "release_date": "2019-02-08"
      },
      {
        "vote_count": 8,
        "id": 468224,
        "video": false,
        "vote_average": 4.9,
        "title": "Tolkien",
        "popularity": 95.609,
        "poster_path": "/5ElXRKi773koW0mAnRjpNTpgZXZ.jpg",
        "original_language": "en",
        "original_title": "Tolkien",
        "genre_ids": [
          18
        ],
        "backdrop_path": "/wdw0KYwlIVu1VxESXFWM1x2z1dz.jpg",
        "adult": false,
        "overview": "Explore the formative years of the orphaned author as he finds friendship, love and artistic inspiration among a group of fellow outcasts at school. This takes him into the outbreak of World War I, which threatens to tear the “fellowship” apart. All of these experiences would inspire Tolkien to write his famous Middle-Earth novels.",
        "release_date": "2019-05-03"
      },
      {
        "vote_count": 11985,
        "id": 284054,
        "video": false,
        "vote_average": 7.4,
        "title": "Black Panther",
        "popularity": 92.593,
        "poster_path": "/uxzzxijgPIY7slzFvMotPv8wjKA.jpg",
        "original_language": "en",
        "original_title": "Black Panther",
        "genre_ids": [
          28,
          12,
          14,
          878
        ],
        "backdrop_path": "/6ELJEzQJ3Y45HczvreC3dg0GV5R.jpg",
        "adult": false,
        "overview": "King T'Challa returns home from America to the reclusive, technologically advanced African nation of Wakanda to serve as his country's new leader. However, T'Challa soon finds that he is challenged for the throne by factions within his own country as well as without. Using powers reserved to Wakandan kings, T'Challa assumes the Black Panther mantel to join with girlfriend Nakia, the queen-mother, his princess-kid sister, members of the Dora Milaje (the Wakandan 'special forces') and an American secret agent, to prevent Wakanda from being dragged into a world war.",
        "release_date": "2018-02-13"
      },
      {
        "vote_count": 20,
        "id": 576393,
        "video": false,
        "vote_average": 6,
        "title": "Fall in Love at First Kiss",
        "popularity": 90.864,
        "poster_path": "/wtaSH8MfJSCEIrrEX9SQuHdU5sl.jpg",
        "original_language": "zh",
        "original_title": "一吻定情",
        "genre_ids": [
          10749,
          35
        ],
        "backdrop_path": "/yY7kr7Rgvo8W0Kr3U0bMV8Zq1qM.jpg",
        "adult": false,
        "overview": "After an earthquake destroys Xiang Qin's house, she and her father move in with the family of her father's college buddy. To her surprise, her new kind and amicable aunt and uncle are the parents of her cold and distant schoolmate, Jiang Zhi Shu, a genius with an IQ of 200 whom not too long ago rejected her when she confessed her feelings for him. Will the close proximity give her a second chance to win Zhi Shu's heart? Or will her love for him end under his cold words?",
        "release_date": "2019-02-14"
      },
      {
        "vote_count": 397,
        "id": 157433,
        "video": false,
        "vote_average": 6,
        "title": "Pet Sematary",
        "popularity": 90.069,
        "poster_path": "/7SPhr7Qj39vbnfF9O2qHRYaKHAL.jpg",
        "original_language": "en",
        "original_title": "Pet Sematary",
        "genre_ids": [
          53,
          9648,
          27
        ],
        "backdrop_path": "/dpJq6trUDOutSPSLrFdROPmzaVn.jpg",
        "adult": false,
        "overview": "Louis Creed, his wife Rachel and their two children Gage and Ellie move to a rural home where they are welcomed and enlightened about the eerie 'Pet Sematary' located nearby. After the tragedy of their cat being killed by a truck, Louis resorts to burying it in the mysterious pet cemetery, which is definitely not as it seems, as it proves to the Creeds that sometimes dead is better.",
        "release_date": "2019-04-04"
      },
      {
        "vote_count": 176,
        "id": 445629,
        "video": false,
        "vote_average": 6.5,
        "title": "Fighting with My Family",
        "popularity": 85.677,
        "poster_path": "/3TZCBAdKQiz0cGKGEjZiyZUA01O.jpg",
        "original_language": "en",
        "original_title": "Fighting with My Family",
        "genre_ids": [
          35,
          18
        ],
        "backdrop_path": "/mYKP6qcDUimVMAHQWLOuDHjO19S.jpg",
        "adult": false,
        "overview": "Born into a tight-knit wrestling family, Paige and her brother Zak are ecstatic when they get the once-in-a-lifetime opportunity to try out for the WWE. But when only Paige earns a spot in the competitive training program, she must leave her loved ones behind and face this new cutthroat world alone. Paige's journey pushes her to dig deep and ultimately prove to the world that what makes her different is the very thing that can make her a star.",
        "release_date": "2019-02-14"
      },
      {
        "vote_count": 12215,
        "id": 283995,
        "video": false,
        "vote_average": 7.7,
        "title": "Guardians of the Galaxy Vol. 2",
        "popularity": 82.519,
        "poster_path": "/y4MBh0EjBlMuOzv9axM4qJlmhzz.jpg",
        "original_language": "en",
        "original_title": "Guardians of the Galaxy Vol. 2",
        "genre_ids": [
          28,
          12,
          35,
          878
        ],
        "backdrop_path": "/aJn9XeesqsrSLKcHfHP4u5985hn.jpg",
        "adult": false,
        "overview": "The Guardians must fight to keep their newfound family together as they unravel the mysteries of Peter Quill's true parentage.",
        "release_date": "2017-04-19"
      }
    ]
  }